{
  "error_asigning_user_to_team": "Error assigning the user to the team, please try again",
  "error_creating_team": "Error creating the team, please try again",
  "error_name_empty": "Please type your name",
  "error_new_password_empty": "Please type a new password ",
  "error_password_empty": "Please type a password",
  "error_updating_password": "Error updating your password, we'll find out what happened",
  "error_updating_profile": "Error updating your profile, we'll find out what happened",
  "error_updating_profile_picture": "Error updating your profile picture, but we'll try to update the other fields you changed",
  "old_password_does_not_match": "The current password doesn't match the one in our database",
  "password_at_least_n_characters": "Please type at least {{count}} characters",
  "passwords_do_not_match": "The passwords don't match",
  "select_a_successor_dropteam_modal": "Select a successor",
  "you_dropped_team": "You've abandoned the team {{team}}",
  "email_already_in_use": "That email is already in use",
  "password_and_email_combination_not_found": "Couldn't login with these credentials",
  "error_creating_account_please_try_again": "Error creating the account, please try again, we're working on it",
  "please_write_valid_email": "Please type a valid email",
  "please_write_login_email": "Please type the email to access",
  "please_write_login_password": "Please type the password to access",
  "please_write_signup_email": "Please type an email to create an account",
  "please_write_signup_name": "Please type your name",
  "please_write_signup_password": "Please type a password to create an account",
  "password_at_least_8_characters": "Please type at least 8 characters",
  "error_purpose_empty": "Please type your company's purpose",
  "generic_error": "Ooops... something happened, the spaceship ain't working like we expected, be patient we'll fix it.",
  "error_kr_beginning": "Type a beginning",
  "error_kr_ending": "Type a goal",
  "error_company_name": "Please type the company's name",
  "error_creating_account_try_again": "Error creating the account, please try again",
  "recovery_password_email_not_found": "We couldn't find this email in our database",
  "company_without_enough_licenses": "There are not enough seats to add more users to your company.",
  "something_went_wrong": "Something went wrong, try again"
}
