{
	"name_empty": "The name is empty, how are we gonna call you?",
	"name_max_50_characters": "Write a maximum of 50 characters",
	"name_min_3_characters": "Write a minimum of 4 characters",
	"name_max_30_characters": "Write a maximum of 30 characters",
	"name_company_empty": "The name can't be empty, where do you work?",
	"team_name_empty": "The name of the team can't be empty",
	"other_area_empty": "Please write an area, so we can give you a better service"
}