{
	"your_spaceschip_pulsarup": "Sua Nave PulsarUp",
	"name_of_your_company": "Nome da sua empresa",
	"logo": "Logo",
	"upload_image_explanation": "Baixar imagem (jpg, png, gif)",
	"spaceship_commander": "Comandante da nave",
	"purpose_of_your_company": "Propósito da sua empresa",
	"timezone": "Fuso horário",
	"data_of_the_ship": "Dados do navio",
	"seats_of_the_crew": "Assentos da tripulação",
	"type_of_plan": "Tipo de plano",
	"team_member_modal__user_is_member_of_the_teams": "{{user_name}} è um membro das equipes:",
	"seats_crew__active_in": "ativo em:",
	"seats_crew__active_users_tab": "Usuarios ativos",
	"seats_crew__inactive_users_tab": "Usuarios inativos",
	"seats_crew__filter__placeholder": "Filtre pessoas pelo nome",
	"invite_teams_modal__back_title": "Convites prontos",
	"invite_teams_modal__back_we_will_send_email": "Enviaremos um e-mail convidando-os para essa equipe.",
	"invite_teams_modal__back_we_will_notify_you": "Vamos notificá-lo quando eles entrarem.",
	"invite_teams_modal__front_call_to_action_button": "Enviar convite",
	"remove_member_modal__title": "Tem certeza de que deseja remover {{user_name}} de sua empresa?",
	"remove_member_modal__description": "Não poderá mais acessar o aplicativo, mas o progresso será registrado.",
	"remove_member_modal__button": "Remover da empresa",
	"payment_section__plan_cost_per_user": "{{currency}} / usuário / mes",
	"payment_section__plan_yearly_save": "Você salva {{percentage_save}}%",
	"payment_section__plan_monthly": "Mensalmente",
	"payment_section__plan_yearly": "Anualmente",
	"payment_section__plan_free_trial": "Avaliação gratuita",
	"payment_section__actual_plan": "Plano atual",
	"payment_section__new_plan": "Novo plano",
	"payment_section__billing_cycle": "Tipo de plano",
	"payment_section__seats_quantity": "Número de lugares",
	"payment_section__billing_address": "Endereço de cobrança",
	"payment_section__payment_method": "Método de pagamento",
	"payment_section__total": "Total",
	"payment_section__cancel_plan": "Cancelar plano",
	"payment_section__next_charge": "Data de faturamento",
	"payment_section__remove_users_text": "O número de licenças, é menor do que os assentos que estão sendo usados, clique para diminuir o número de {{decrease_total}} usuário(s)",
	"payment_section__decrease_seats": "Diminuir o número de lugares de {{actual_seats}} para {{new_seats}}",
	"payment_section__decrease_seats_description": "O novo número de assentos é menor do que a tripulação na espaçonave, selecione as pessoas que deixarão o seu navio.",
	"payment_section__decrease_seats_need_to_remove": "Você ainda precisa remover {{remove_users}} usuário(s)",
	"payment_section__remove": "Remover",
	"payment_section__revive": "Reviver",
	"payment_section__address_one": "Linha de endereço 1 (obrigatório)",
	"payment_section__address_one_placeholder": "Rua, nome da empresa, etc.",
	"payment_section__address_two": "Linha de endereço 2",
	"payment_section__address_two_placeholder": "Apartamento, suíte, unidade, prédio etc.",
	"payment_section__country": "País (obrigatório)",
	"payment_section__city": "Cidade (obrigatório)",
	"payment_section__state": "Estado (obrigatório)",
	"payment_section__zip": "Código postal (obrigatório)",

	"payment_section__pending_adjustment_periodicity_monthly": "No dia {{expiration_date}}, mudaremos você para o plano mensal.",
	"payment_section__pending_adjustment_periodicity_yearly": "No dia {{expiration_date}}, mudaremos você para o plano anual.",
	"payment_section__pending_adjustment_licenses": "No dia {{expiration_date}}, alteraremos suas licenças para {{licenses}}",
	"payment_section__cancel_form_modal_title": "{{user_name}}, por que você deseja cancelar?",
	"payment_section__cancel_form_modal_close": "Manter minha nave espacial",
	"payment_section__cancel_form_modal_continue": "Continue e cancele",
	"payment_section__cancel_form_modal_reason_one": "Eu só queria saber o sistema dos OKRs",
	"payment_section__cancel_form_modal_reason_two": "Eu não senti que a plataforma me ajudou a atingir meus objetivos",
	"payment_section__cancel_form_modal_reason_three": "A plataforma tem muitos problemas técnicos",
	"payment_section__cancel_form_modal_reason_four": "A plataforma é muito complicada de usar",
	"payment_section__cancel_form_modal_reason_five": "A plataforma não possui uma versão para celular",
	"payment_section__cancel_form_modal_reason_other": "Outro (especifique ... que nos ajuda a melhorar)",
	"payment_section__cancel_form_modal_are_you_sure": "Tem certeza de que deseja cancelar?",
	"payment_section__cancel_message_modal_title": "Sentiremos sua falta :(",
	"payment_section__cancel_message_modal_consequences": "Depois de deixar a nave espacial:",
	"payment_section__cancel_message_modal_consequence_one": "Toda a sua tripulação será evacuada",
	"payment_section__cancel_message_modal_consequence_two": "Você não poderá continuar preenchendo seus OKRs",
	"payment_section__cancel_message_modal_consequence_three": "O histórico do seu progresso será perdido",
	"payment_section__cancel_message_modal_important": "Importante",
	"payment_section__cancel_message_modal_explanation": "A gasolina de sua espaçonave chegará até {{date}}. Após essa data, nos primeiros 30 dias a equipe de resgate do PulsarUp poderá encontrá-la e recuperá-la. Depois disso, ela será perdida no espaço para sempre.",
	"payment_section__cancel_message_modal_drop": "Deixar minha nave espacial",
	"payment_section__cancel_adjustment_message": "Estamos tristes em ver você saindo :(, mas você ainda pode desfazer esta ação e preencher seus OKRs.",
	"payment_section__rescue_my_ship": "Resgatar minha nave espacial",
	"payment_section__card_text": "{{brand}} terminada em {{last_four_digits}}",
	"payment_section__receipt_title": "Histórico de recibos",
	"payment_section__disputing_message": "As informações de pagamento não podem ser modificadas devido a um pagamento que está sendo disputado, se você acha que isso é um erro, entre em contato conosco: hello@pulsarup.com",
	"payment_section__sub_total": "Cobraremos agora um total de {{total}} pelo aumento de licenças (com seu plano atual) para que você possa usá-las imediatamente",
	"payment_section__apply_later": "Aplicar mais tarde",
	"payment_section__apply_now": "Inscreva-se agora",
	"payment_section__use_billing_address": "Atualizar endereço de cobrança",
	"payment_section__use_billing_address_success": "Endereço de cobrança atualizado",
	"payment_section__use_billing_address_fail": "Erro ao atualizar o endereço de cobrança, tente novamente",
	"payment_section__update_card": "Atualizar cartão",
	"payment_section__update_card_success_title": "Cartão atualizado com sucesso",
	"payment_section__update_card_success_description": "Você atualizou seu cartão com sucesso, agora você pode reabastecer o tanque de sua nave espacial sempre que quiser!",
	"payment_section__update_card_fail": "Erro ao atualizar o cartão, por favor, tente novamente",
	"payment_section__payment_error": "Ocorreu um erro ao processar o pagamento, tente novamente",
	"payment_section__offline_message": "Seu plano não tem permissão para pagar on-line, se você quiser pagar on-line, envie uma mensagem para hello@pulsarup.com",
	"payment_section__adjustments_created_title": "As alterações foram agendadas com sucesso",
	"payment_section__adjustments_created_description": "As alterações foram agendadas com sucesso e serão aplicadas na data de {{date}}, não há mais nada a fazer, vamos cuidar a partir de agora!",
	"payment_section__payment_fail_title": "Pagamento recusado",
	"payment_section__payment_fail_description": "O seu pagamento foi recusado, por favor tente novamente, se o problema persistir tente alterar o cartão de pagamento, ou envie um email para hello@pulsarup.com e nós iremos ajudá-lo :)",
	"payment_section__payment_succesful_title": "Pagamento bem-sucedido",
	"payment_section__payment_succesful_description_adjustments": "Incrível! Sua nave espacial agora tem mais vagas para sua equipe, aproveite-as!",
	"payment_section__payment_succesful_description_subscription": "Incrível! Sua espaçonave agora tem mais combustível, você pode continuar com a sua viagem para satisfazer seus OKRs! :)",
	"account__inactive_admin": "Esta conta está inativa devido à falta de pagamento, vá para a seção de pagamento para carregar combustível em sua nave espacial ou envie um email para hello@pulsarup.com e nós o ajudaremos",
	"account__inactive_normal_user": "Esta conta está inactiva devido à falta de pagamento, pede ao administrador da conta para pagar, ou envia um email para hello@pulsarup.com e nós iremos ajudá-lo",
	"account__canceled_admin": "Esta conta foi cancelada, vá para a seção de pagamento para carregar combustível em sua nave espacial ou envie um email para hello@pulsarup.com e nós o ajudaremos",
	"account__canceled_normal_user": "Esta conta foi cancelada, peça ao administrador da conta para reativar a conta ou envie um email para hello@pulsarup.com e nós ajudaremos você",
	"only_leaders_can_progress": "Apenas líderes de equipe podem progredir *Beta"
}
