{
	"kanban": "Kanban",
	"filter_responsibles": "Responsáveis",
	"filter_tags": "Labels",
	"filter_create_tag": "Criar marcador",
	"tag_modal_labels_title": "Etiquetas",
	"tag_modal_create_label_title": "Criar marcador",
	"tag_modal_edit_label_title": "Editar marcador",
	"tag_modal_delete_label_title": "Excluir marcador",
	"tag_modal_create_a_new_label": "Criar um novo marcador",
	"tag_modal_create_label_name": "Nome",
	"tag_modal_create_label_select_color": "Selecione uma cor",
	"tag_modal_edit_label_name": "Nome",
	"tag_modal_edit_label_select_color": "Selecione uma cor",
	"tag_modal_delete_text": "Isso removerá esta tag de todas as placas e não será reversível.",
	"board_objective": "Objetivo",
	"board_key_result": "Resultado Chiave",
	"board_progress": "Progredir",
	"archive_lane_modal_title": "Arquivar coula",
	"archive_lane_modal_text": "Isso arquivará esta coluna e não é reversível ainda.",
	"lane_create_card": "Criar tarefa",
	"lane_create_another_card": "Criar uma tarefa",
	"add_card_placeholder": "Adicione o título da tarefa...",
	"due_date_modal_title": "Data de vencimento",
	"responsibles_modal_title": "Membros",
	"archive_card_modal_title": "Arquivar cartão",
	"archive_card_modal_text": "Isso arquivará este cartão e não será reversível ainda.",
	"due_date": "Data de vencimento",
	"delete_file_modal_title": "Excluir arquivo anexo",
	"delete_file_modal_text": "Isso excluirá este arquivo anexo deste cartão",
	"delete_comment_modal_title": "Excluir comentário",
	"delete_comment_modal_text": "Isso excluirá este comentário deste cartão",
	"kanban_card_attachments": "Arquivos anexos",
	"kanban_card_comments": "Comentários",
	"kanban_card_add_comment": "Adicionar um comentário",
	"kanban_card_responsibles": "Membros",
	"kanban_card_due_date": "Data de vencimento",
	"kanban_card_tags": "Etiquetas",
	"kanban_card_description": "Descrição",
	"kanban_card_sub_tasks": "Subtarefa",
	"kanban_card_add_sub_tasks": "Adicionar uma subtarefa",
	"kanban_card_write_comment": "Escribe um comentário",
	"kanban_add_column": "Adicionar coluna",
	"kanban_create_column": "Criar coluna",
	"kanban_card_description_placeholder": "Adicione uma descrição detalhada",
	"kanban_card_select_a_date": "Escolha data",
	"kanban_lane": "Coluna",
	"kanban_select_lane": "Escolha uma coluna",
	"kanban_card_title": "Titulo",
	"filter_due_date": "Data de Vencimento",
	"filter_date_no_date": "Sem data",
	"filter_date_expired": "Expirado",
	"filter_date_today": "Hoje",
	"filter_date_tomorrow": "De manhã",
	"filter_date_two_days_or_more": "Dois dias ou mais",
	"filter_date_completed": "Completou",
	"to": "para ",
	"created_card_activity": "criou o cartão",
	"added_card_responsible": "adicionou como responsável ao ",
	"removed_card_responsible": "removeu como responsável ao ",
	"moved_card_from_lane_to_lane": "moveu o cartão de ",
	"archived_card": "ele arquivou o cartão",
	"added_file_to_card": "adicionou o arquivo ",
	"removed_file_from_card": "removeu o arquivo",
	"added_due_date_to_card": "adicionou uma data de expiração",
	"changed_due_date_to_card": "trocou a data de expiração",
	"deleted_due_date_to_card": "removeu a data de expiração"
}