{
    "actions": {
        "kanban_card_due_date_expired": "expirou",
        "kanban_card_due_date_will_expire": "expirará",
        "okr_no_progress_in_time": "sem progreso desde",
        "team_user_changed_role": "te mudou o cargo na equipe",
        "kanban_card_changed_lane": "moveu o cartão",
        "kr_key_result_progress_advanced": "fez progresso no resultado chave",
        "kr_key_result_progress_decreased": "diminuiu o progresso do resultado chave",
        "team:_nvitation_accepted": "aceitou o convite para se juntar à equipe",
        "kanban_card_responsible_added": "adicionou você como um responsável do cartão",
        "kanban_card_responsible_removed": "removido você como um responsável do cartão",
        "team_user_removed": "removeu você da equipe",
        "team_user_added": "adicionou você à equipe",
        "okr_progress_completed": "completou o OKR",
        "kanban_card_comment_user_tagged_comment": "marcou você no comentário"
    },
    "notifications": "Notificações",
    "mark_as_read": "Marcar como lidas",
    "see_more": "Ver mais",
    "titles":{
        "in_the_card": "No cartão"
    }

}
