{
	"your_profile": "Seu perfil",
	"welcome_aboard_name": "Bem-vindo a bordo, como você prefere que te chamem?",
	"name_placeholder": "Pode ser algo como Rick Sanchez ou Emmett Brown",
	"your_purpose": "Seu propósito",
	"pulsar_star": "Essa estrela pulsar é a razão para existir de sua empresa",
	"your_mission": "Sua missão é alcançá-la e todas suas metas devem estar alinhadas com ela",
	"purpose_placeholder": "O propósito de PulsarUp é: “converter as empresas nas versões mais competitivas delas mesmas.”. Digite aqui o propósito da sua empresa",
	"your_company": "Sua empresa",
	"reach_purpose": "Para alcançar o seu propósito, necessitas de uma nave espacial que te leve a cumprir com todos os seus objetivos, só faltam os detalhes finais.",
	"name_company_placeholder": "nomeie a sua nave",
	"your_team": "Sua equipe",
	"especialized_teams": "Sua nave conta com equipes especializadas para cada situação, registre o primeiro para facilitar a atribuição de responsabilidades.",
	"name_team_placeholder": "Nomeia uma equipe, como Desenho ou Desenvolvimento",
	"your_colleagues": "Seus amigos",
	"tripulation_will_get_email": "Sua equipe receberá um email de boas-vindas para acessar sua nave espacial. Vamos notificá-lo quando eles tiverem entrado.",
	"invitations_everything_is_ready": "Tudo pronto para que você possa convidar a equipe que o ajudará a alcançar sua estrela.",
	"invitations_placeholder": "Escreva seus e-mails, separados por vírgulas",
	"invite_with_link": "Convidar com link",
	"your_first_okr": "Seu primeiro OKR",
	"okrs_explanation": "OKR é um acrônimo de Objective - Key Results. (Objetivo - Resultados Clave). É um sistema de metas utilizadas por empresas como Amazon, Google, Netflix, Spotify, Twitter e muitas outras; entre elas,",
	"components_of_okrs": "Os componentes dos OKRs são:",
	"what_are_objectives": "Objetivos: Descrições qualitativas memoráveis ​​do que você quer conquistar. Eles devem ser curtos e inspiradores para motivar e desafiar a equipe.",
	"what_are_key_results": "Resultados chave: Série de métricas para medir o progresso em direção ao Objetivo. Cada Objetivo deve ter entre 2 e 5 resultados chave.",
	"okrs_sentence": "Os OKRs completam a frase: eu vou (Objetivo) e vou medir com (estos Resultados Clave).",
	"define_okr": "Agora você precisa definir qual é o objetivo mais importante para a sua nave e tripulação se foquem, lembre-se de que seu objetivo é:",
	"objective": "Objetivo:",
	"objective_placeholder": "Que PulsarUp adquira outra nave para poder ajudar outras empresas",
	"objective_characteristics": "Características de um bom Objetivo",
	"objective_qualiative": "É qualitativo",
	"fills_sentence": "Completa a frase 'Quero fazer ______'",
	"inspires": "Inspira e desafia a sua equipe",
	"your_first_kr": "Sua primeira meta - OKR",
	"the_objective": "O objetivo:",
	"needs_2_5_krs": ", Você precisa de 2 a 5 Resultados Chave para definir como você medirá seu progresso.",
	"krs": "Resultados chave:",
	"add_key_result": "Adicionar Resultado Chave",
	"charectiristics_kr": "Características de um bom resultado chave",
	"always_numbers_kr": "Sempre levam números",
	"kr_sentence": "Completa a frase 'Vou me medir por ______'",
	"measures_result": "Meça o resultado, não o esforço",
	"succesful_launch": "Lançamento bem sucedido",
	"welcome_aboard": "Bem-vindo a bordo!",
	"spaceship_ready": "Sua nave está pronta e encaminhada para cumprir seu propósito. PulsarUp irá ajudá-la a alcançar sua estrela, porque esse é o nosso propósito",
	"spaceship_ready_two": "Sua nave está pronta para ajudarte a alcançar seu objetivo.",
	"enterprise": "Empresa",
	"personal": "Pessoal",
	"start": "Inicio",
	"purposes_of_some_companies": "Propósitos de algumas empresas",
	"google_purpose": "Organizar a informação do mundo e torná-la universalmente acessível e útil.",
	"walmart_purpose": "Nós economizamos dinheiro para que eles possam viver melhor.",
	"disney_purpose": "Seja um dos principais produtores e fornecedores de entretenimento e informação do mundo.",
	"facebook_purpose": "Dar às pessoas o poder de construir a comunidade e trazer o mundo mais perto juntos.",
	"uber_purpose": "Torne o transporte tão confiável quanto a água corrente, em qualquer lugar, para todos.",
	"airbnb_purpose": "Para viver no mundo onde um dia você pode sentir como se estivesse em casa em qualquer lugar e não em uma casa, mas verdadeiramente em casa, onde você pertence.",
	"spotify_purpose": "Liberar o potencial da criatividade humana, dando a um milhão de artistas criativos a oportunidade de viver de sua arte e bilhões de fãs, a oportunidade de desfrutar e se inspirar por ela.",
	"pulsarup_purpose": "Levar as empresas a atingir seu objetivo",
	"register_your_first_team": "Registre sua primeira equipe para criar sua primeira meta OKR",
	"invite_the_crew_of_your_team": "Convide a tripulação de sua equipe",
	"what_are_okrs_for": "Eles servem para estabelecer e alcançar sistematicamente os objetivos corretos para alcançar seu objetivo",
	"who_uses_okrs": "Amazon, Disney, Google, Netflix, Spotify, Twitter, Uber e muitas outras empresas já verificaram seu valor, agora é a vez de",
	"to_define_an_objective_ask": "Para definir um objetivo, você precisa se perguntar:",
	"what_do_you_want_to_reach": "O que você quer alcançar?",
	"a_good_objective_counts_with": "Um bom objetivo conta com os seguintes elementos:",
	"google_objective": "Crie um relógio capaz de criar e compartilhar hologramas.",
	"walmart_objective": "Vender todos os produtos em embalagens totalmente recicláveis.",
	"disney_objective": "Construa a montanha-russa mais rápida do mundo.",
	"facebook_objective": "Remova todas as contas falsas do facebook.",
	"uber_objective": "Crie ubers para turistas com motoristas que também são guias turísticos.",
	"airbnb_objective": "Conecte viajantes individuais com interesses comuns para alugar juntos.",
	"spotify_objective": "Crie um aplicativo para aprender idiomas cantando.",
	"pulsarup_objective": "Construir equipes de alta performance em qualquer empresa.",
	"the_purpose_of_your_spacechip": "O objetivo da sua nave espacial é:",
	"the_most_important_objective_part": "Qual é o mais importante que sua equipe <span class='blue_text'>{{team}}</span> deve alcançar agora para se aproximar desse propósito?",
	"to_define_an_kr_ask": "Para definir um resultado chave, você precisa se perguntar:",
	"how_are_you_gonna_measure_progress_towards_objective": "Como você vai medir que você está realmente progredindo em direção ao Objetivo?",
	"good_key_results": "Os bons resultados chave são:",
	"google_kr_1": "Aumente 25% em centímetros cúbicos da área de projeção do holograma.",
	"google_kr_2": "Reduza o tempo de carregamento dos hologramas em 45%.",
	"walmart_kr_1": "Renovar 60% dos contratos restantes com novas cláusulas.",
	"walmart_kr_2": "Ter 80% das mercadorias com embalagens não recicláveis.",
	"disney_kr_1": "Aumente a aceleração inicial para 180 km/h.",
	"disney_kr_2": "Teste veículos no túnel de vento 20 vezes.",
	"facebook_kr_1": "Desenvolva 100 algoritmos que identificam contas de bots.",
	"facebook_kr_2": "Forçar a verificação da conta com uma selfie.",
	"uber_kr_1": "Treine 300 motoristas para serem guias turísticos.",
	"uber_kr_2": "Inicie o piloto da app em 5 cidades turísticas da Europa.",
	"airbnb_kr_1": "Desenvolver o método de pagamento dividido para compartilhar custos.",
	"airbnb_kr_2": "Dar desconto aos primeiros 100 usuários para usar o serviço.",
	"spotify_kr_1": "Lance o curso inicial com 500 músicas pop em inglês.",
	"spotify_kr_2": "Melhore a eficácia do tradutor automático em 35%.",
	"pulsarup_kr_1": "Aumentar em 45% a quantidade de OKRS concluída por empresa.",
	"pulsarup_kr_2": "Crie uma seção para que os usuários possam ter 1 a 1 reuniões.",
	"key_result_summary": "O propósito de sua nave espacial é: <span class='blue_text'>{{purpose}}</span>, e sua equipe <span class='blue_text'>{{team}}</span> tem o objetivo <span class='blue_text'>{{objective}}</span>.",
	"you_need_2_to_5_krs": "Você precisa criar entre 2 e 5 resultados chave para orientá-los e confirmar o progresso.",
	"your_purpose_personal": "Esta estrela Pulsar representa sua razão de ser, ou o que você mais deseja neste momento",
	"purposes_of_some_people": "Exemplos de Propósitos com Diferentes Abordagens",
	"entrepeneurship_approach": "Empreendedorismo:",
	"entrepeneurship_purpose": "Torne-se um empreendedor em série.",
	"travels_approach": "Viagens:",
	"travels_purpose": "Conheça todos os lugares incríveis do planeta.",
	"family_approach": "Família:",
	"family_purpose": "Dê à minha família todo o amor e os recursos de que precisam.",
	"finances_approach": "Finanças:",
	"finances_purpose": "Faça meu dinheiro trabalhar para viver melhor.",
	"health_approach": "Saúde:",
	"health_purpose": "Vivendo por muitos anos com uma excelente qualidade de vida.",
	"freelance_approach": "Freelance:",
	"freelance_purpose": "Seja o dono do meu tempo, localização e tempo.",
	"social_approach": "Social:",
	"social_purpose": "Melhorar a qualidade de vida de toda a comunidade.",
	"kitchen_approach": "Cozinha:",
	"kitchen_purpose": "Encantar todos com a minha comida.",
	"who_uses_okrs_personal": "Pessoas como Bill Gates fundador da Microsoft, e Bono vocalista do U2, já provaram seu valor, agora é a vez de",
	"entrepeneurship_objective": "Alcançar o sucesso da minha nova startup",
	"travels_objective": "Conheçer todas as capitais da Europa",
	"family_objective": "Criar memórias valiosas com minha família",
	"finances_objective": "Liquidar todas as minhas dívidas e créditos",
	"health_objective": "Me recuperar completamente da minha operação no joelho",
	"freelance_objective": "Trabalhar da praia ganhando mais do que em um escritório",
	"social_objective": "Fazer as pessoas do meu bairro se sentirem seguras",
	"kitchen_objective": "Ser um especialista em cozinha turca",
	"your_personal_purpose": "Seu objetivo é:",
	"the_most_important_objective_personal": "Qual é a coisa mais importante que você deveria estar fazendo agora para se aproximar desse propósito?",
	"entrepeneurship_kr_1": "Obter 300 novos clientes",
	"entrepeneurship_kr_2": "Aumentar o ticket médio em 18%",
	"travels_kr_1": "Visitar mais 5 capitais neste verão",
	"travels_kr_2": "Obter carona para 3 capitais",
	"family_kr_1": "Se reunir para almoçar todos os domingos",
	"family_kr_2": "Fazer uma pequena viagem a cada dois meses",
	"finances_kr_1": "Não comprar mais nada por meses sem juros",
	"finances_kr_2": "Economizar 15% mais que no ano passado",
	"health_kr_1": "Participar de 5 sessões de reabilitação por semana",
	"health_kr_2": "Caminhar diariamente 3 quilômetros",
	"freelance_kr_1": "Receba 5 pequenos clientes por semana",
	"freelance_kr_2": "Obter 2 grandes clientes por mês",
	"social_kr_1": "Conseguir 15 pessoas para uma brigada de bairro",
	"social_kr_2": "Criar um bate-papo em grupo de emergência",
	"kitchen_kr_1": "Aperfeiçioar 6 pratos turcos",
	"kitchen_kr_2": "Inventar 2 receitas próprias para sobremesas turcas",
	"key_result_summary_personal": "Seu objetivo é: <span class='blue_text'> {{propósito}} </span>, e seu primeiro objetivo é <span class='blue_text'> {{objective}} </span>.",
	"you_need_2_to_5_krs_personal": "Você precisa criar entre 2 e 5 resultados-chave para orientá-lo e confirmar o progresso.",
	"hello_traveler": "Olá viajante!",
	"how_does_your_friends_call_you": "Como seus amigos chamá-lo??",
	"card_name_placeholder": "Por favor digite seu nome",
	"name_your_ship": "De um nome a sea nave",
	"placeholder_name_ship": "Nome da empresa",
	"create_first_team": "Crie seu primeiro time",
	"select_an_area": "Selecione a área da equipe",
	"development": "Desenvolvimento",
	"design": "Design",
	"finance": "Finanças",
	"marketing": "Marketing",
	"human_resources": "Recursos Humanos",
	"sales": "Vendas",
	"other": "Outra",
	"specify_area": "Especifique a área",
	"invite_your_colleagues": "Convide seus colegas",
	"write_their_emails": "Escreva seus e-mails",
	"colleague_email": "colega@suaempresa.com",
	"congratulations_won_medal": "Parabéns, você ganhou uma medalha!",
	"later_use_medal": "Mais tarde, você pode usar as medalhas para personalizar sua conta e obter outros prêmios",
	"first_objective_personal": "Que tipo de objetivo você quer cumprir primeiro?",
	"type_of_objectives": "Tipo de objetivos",
	"select_a_type_of_objective": "Selecione um tipo de meta",
	"entrepeneurship": "Empreendedorismo",
	"traveling": "Viagem",
	"family": "Família",
	"finance": "Finanças",
	"health": "Saúde",
	"freelance": "Freelance",
	"languages": "Idiomas",
	"browser_okr_goals_definition": "Definindo metas com o sistema OKR",
	"browser_kanban_definition": "Gerenciamento de tarefas com  Kanban",
	"browser_information_definition": "Informações rápidas e diretas com Chat",
	"strategy": "Estratégia",
	"tactical": "Tática",
	"communication": "Comunicação",
	"continue_from_your_computer": "Continue do seu computador",
	"continue_from_your_computer_explanation": "Por favor, continue a configuração da sua conta a partir do seu computador para aproveitar ao máximo sua plataforma.",
	"team_area_disclaimer": "(Esta informação será usada para criar um exemplo de um OKR)",
	"card_phone_placeholder": "Por favor digite seu telefone",
	"we_need_a_little_info": "Precisamos de um pouco de informação de você",
	"about_your_ship": "Sobre a sua empresa",
	"info_about_your_ship": "Precisamos de um pouco de informação da sua empresa",
	"select_a_company_area": "Setor da empresa",
	"size_of_the_company": "Tamanho da empresa",
	"role_in_the_company": "Seu papel na empresa",
	"marketing_and_advertising": "Marketing e publicidade",
	"consulting_and_training": "Consultoria e treinamento",
	"ecommerce": "E-commerce",
	"education": "Educação",
	"engineering_general_industry": "Engenharia ou indústria geral",
	"events": "Eventos",
	"finances_law_related": "Finanças, lei ou relacionados",
	"government_or_related": "Governo ou relacionados",
	"real_estate": "Imobiliária",
	"media": "Meios de comunicação",
	"ong": "ONG",
	"health_and_aesthetics": "Saúde e estética",
	"general_services": "Serviços gerais",
	"human_resources_and_coaching": "Recursos humanos e coaching",
	"software_cloud": "Software e Cloud (Nuvem)",
	"telecommunications": "Telecomunicações",
	"tourism_and_leisure": "Turismo e ócio",
	"retail": "Varejo",
	"other": "Other",
	"hardware": "Hardware",
	"1_10": "1-10",
	"11_50": "11-50",
	"51_200": "51-200",
	"201_500": "201-500",
	"500_more": "mais de 500",
	"director": "Diretor",
	"manager": "Gerente",
	"coordinator": "Coordenador",
	"leader": "Líder",
	"supervisor": "Supervisor",
	"analyst": "Analista",
	"developer": "Desenvolvedor",
	"other_company_role_placeholder": "Escreve teu papel",
	"other_company_area_placeholder": "Escreve o setor",
	"welcome": "Bem-vindo, ",
	"we_need_some_details": "Precisamos de alguns detalhes para começar",
	"phone": "Número de telefone",
	"almost_ready":"Quase pronto",
	"tell_us_about_your_company": "Conte-nos sobre sua empresa",
	"name_of_your_company": "Nome da sua empresa",
	"later_you_can_create_more": "Então você pode criar mais",
	"whats_your_teams_name": "Qual é o nome da sua equipe?",
	"team_name": "Nome da sua equipe",
	"industry": "Indústria",
	"who_else_is_in_your_team":"Quem mais está na sua equipe?",
	"congratulations_your_ship_is_ready": "Parabéns, sua nave está pronta!",
	"you_can_create_your_okrs": "Agora você pode criar seus OKRs para perseguir seu propósito",
	"start_platform": "Começar"
}